…
p3_missing = p3_noaa %>% 
  group_by(id) %>% 
  summarize(prcp_na = sum(is.na(prcp)),
            snow_na = sum(is.na(snow)),
            snwd_na = sum(is.na(snwd)),
            tmax_na = sum(is.na(tmax)),
            tmin_na = sum(is.na(tmin)))
p3_missing
```

    ## # A tibble: 747 x 6
    ##    id          prcp_na snow_na snwd_na tmax_na tmin_na
    ##    <chr>         <int>   <int>   <int>   <int>   <int>
    ##  1 US1NYAB0001      60     252     874    1157    1157
    ##  2 US1NYAB0006      19     283     703     852     852
    ##  3 US1NYAB0010     220     352     816     822     822
    ##  4 US1NYAB0016      98     152     212     214     214
    ##  5 US1NYAB0017     301     415     459     459     459
    ##  6 US1NYAB0021       2      37      72     365     365
    ##  7 US1NYAB0022     233     238     239     273     273
    ##  8 US1NYAB0023     144     238     289     365     365
    ##  9 US1NYAB0025      40      43      43     215     215
    ## 10 US1NYAL0002      57     245     409     549     549
    ## # ... with 737 more rows
…
